{
  "$schema": "http://json-schema.org/draft-07/schema#",
  "title": "Test schema",
  "required": [
    "version",
    "name"
  ],
  "additionalProperties": true,
  "properties": {
    "version": {
      "type": "string",
      "pattern": "^[0-9]+\\.[0-9]+\\.[0-9]+$"
    },
    "name": {
      "type": "string",
      "minLength": 3
    }
  }
}
